Retrieving raw data: ml_responses • multilex
…
  Changelog

      Retrieving raw data: ml_responses

      Source: vignettes/ml_responses.Rmd
      ml_responses.Rmd

library(multilex)
my_email <- "gonzalo.garciadecastro@upf.edu"
ml_connect(google_email = my_email)

The function ml_responses function retrieves participants’ responses to the questionnaire using the formr API, and joins the responses to participant- and item-level information. This function returns a tidy data frame in which each row is one participant’s response to an individual item. By default, this function updates all data. You can avoid waiting for data to be updated by setting the argument update = FALSE, so that the last version of the data is retrieved. This will retrieve data as it was the last time ml_responses was ran with update = TRUE.

ml_responses()               # this will update data
#> # A tibble: 928,660 x 25
#>    id      id_exp   id_db  time code  study  version time_stamp language item   
#>    <chr>   <chr>    <chr> <dbl> <chr> <chr>  <chr>   <date>     <chr>    <chr>  
#>  1 bilexi~ phocros~ 47264     1 BL035 PhoCr~ BL-Lon~ 2019-10-22 Catalan  cat_ze~
#>  2 bilexi~ phocros~ 47264     1 BL035 PhoCr~ BL-Lon~ 2019-10-22 Catalan  cat_as~
#>  3 bilexi~ phocros~ 47264     1 BL035 PhoCr~ BL-Lon~ 2019-10-22 Catalan  cat_br~
#>  4 bilexi~ phocros~ 47264     1 BL035 PhoCr~ BL-Lon~ 2019-10-22 Catalan  cat_co~
#>  5 bilexi~ phocros~ 47264     1 BL035 PhoCr~ BL-Lon~ 2019-10-22 Catalan  cat_dr~
#>  6 bilexi~ phocros~ 47264     1 BL035 PhoCr~ BL-Lon~ 2019-10-22 Catalan  cat_ex~
#>  7 bilexi~ phocros~ 47264     1 BL035 PhoCr~ BL-Lon~ 2019-10-22 Catalan  cat_fa~
#>  8 bilexi~ phocros~ 47264     1 BL035 PhoCr~ BL-Lon~ 2019-10-22 Catalan  cat_fa~
#>  9 bilexi~ phocros~ 47264     1 BL035 PhoCr~ BL-Lon~ 2019-10-22 Catalan  cat_mo~
#> 10 bilexi~ phocros~ 47264     1 BL035 PhoCr~ BL-Lon~ 2019-10-22 Catalan  cat_pi~
#> # ... with 928,650 more rows, and 15 more variables: response <int>,
#> #   date_birth <date>, age <dbl>, sex <chr>, postcode <chr>, edu_parent1 <chr>,
#> #   edu_parent2 <chr>, doe_catalan <dbl>, doe_spanish <dbl>, doe_others <dbl>,
#> #   randomisation <chr>, doe_catalan_lockdown <dbl>,
#> #   doe_spanish_lockdown <dbl>, doe_others_lockdown <dbl>, dominance <chr>

ml_responses(update = FALSE) # this will retrieve data from last update 
#> # A tibble: 928,660 x 25
#>    id      id_exp   id_db  time code  study  version time_stamp language item   
#>    <chr>   <chr>    <chr> <dbl> <chr> <chr>  <chr>   <date>     <chr>    <chr>  
#>  1 bilexi~ phocros~ 47264     1 BL035 PhoCr~ BL-Lon~ 2019-10-22 Catalan  cat_ze~
#>  2 bilexi~ phocros~ 47264     1 BL035 PhoCr~ BL-Lon~ 2019-10-22 Catalan  cat_as~
#>  3 bilexi~ phocros~ 47264     1 BL035 PhoCr~ BL-Lon~ 2019-10-22 Catalan  cat_br~
#>  4 bilexi~ phocros~ 47264     1 BL035 PhoCr~ BL-Lon~ 2019-10-22 Catalan  cat_co~
#>  5 bilexi~ phocros~ 47264     1 BL035 PhoCr~ BL-Lon~ 2019-10-22 Catalan  cat_dr~
#>  6 bilexi~ phocros~ 47264     1 BL035 PhoCr~ BL-Lon~ 2019-10-22 Catalan  cat_ex~
#>  7 bilexi~ phocros~ 47264     1 BL035 PhoCr~ BL-Lon~ 2019-10-22 Catalan  cat_fa~
#>  8 bilexi~ phocros~ 47264     1 BL035 PhoCr~ BL-Lon~ 2019-10-22 Catalan  cat_fa~
#>  9 bilexi~ phocros~ 47264     1 BL035 PhoCr~ BL-Lon~ 2019-10-22 Catalan  cat_mo~
#> 10 bilexi~ phocros~ 47264     1 BL035 PhoCr~ BL-Lon~ 2019-10-22 Catalan  cat_pi~
#> # ... with 928,650 more rows, and 15 more variables: response <int>,
#> #   date_birth <date>, age <dbl>, sex <chr>, postcode <chr>, edu_parent1 <chr>,
#> #   edu_parent2 <chr>, doe_catalan <dbl>, doe_spanish <dbl>, doe_others <dbl>,
#> #   randomisation <chr>, doe_catalan_lockdown <dbl>,
#> #   doe_spanish_lockdown <dbl>, doe_others_lockdown <dbl>, dominance <chr>
…
By default, ml_responses retrieves all responses. This behaviour can be changed using the longitudinal argument. This argument takes one of the following character strings:

all: all responses are returned

no: participants with more than one response to the questionnaire (any version) are excluded from the output

first: only the first response from each participant is returned (including responses of participant that only responded once)

last: only the most recent response from each participant is returned (including responses of participant that only responded once)

only: only responses from participants that filled the questionnaire more than once are returned.

Setting longitudinal = "only" is especially useful to perform repeated measures analyses. For example:

#> # A tibble: 272,156 x 25
#>    id      id_exp   id_db  time code  study  version time_stamp language item   
#>    <chr>   <chr>    <chr> <dbl> <chr> <chr>  <chr>   <date>     <chr>    <chr>  
#>  1 bilexi~ bilexic~ 55966     1 BL511 BiLex~ BL-Lon~ 2019-11-16 Catalan  cat_ze~
#>  2 bilexi~ bilexic~ 55966     1 BL511 BiLex~ BL-Lon~ 2019-11-16 Catalan  cat_as~
#>  3 bilexi~ bilexic~ 55966     1 BL511 BiLex~ BL-Lon~ 2019-11-16 Catalan  cat_br~
#>  4 bilexi~ bilexic~ 55966     1 BL511 BiLex~ BL-Lon~ 2019-11-16 Catalan  cat_co~
#>  5 bilexi~ bilexic~ 55966     1 BL511 BiLex~ BL-Lon~ 2019-11-16 Catalan  cat_dr~
#>  6 bilexi~ bilexic~ 55966     1 BL511 BiLex~ BL-Lon~ 2019-11-16 Catalan  cat_ex~
#>  7 bilexi~ bilexic~ 55966     1 BL511 BiLex~ BL-Lon~ 2019-11-16 Catalan  cat_fa~
#>  8 bilexi~ bilexic~ 55966     1 BL511 BiLex~ BL-Lon~ 2019-11-16 Catalan  cat_fa~
#>  9 bilexi~ bilexic~ 55966     1 BL511 BiLex~ BL-Lon~ 2019-11-16 Catalan  cat_mo~
#> 10 bilexi~ bilexic~ 55966     1 BL511 BiLex~ BL-Lon~ 2019-11-16 Catalan  cat_pi~
#> # ... with 272,146 more rows, and 15 more variables: response <int>,
#> #   date_birth <date>, age <dbl>, sex <chr>, postcode <chr>, edu_parent1 <chr>,
#> #   edu_parent2 <chr>, doe_catalan <dbl>, doe_spanish <dbl>, doe_others <dbl>,
#> #   randomisation <chr>, doe_catalan_lockdown <dbl>,
#> #   doe_spanish_lockdown <dbl>, doe_others_lockdown <dbl>, dominance <chr>
…
